{
    "KPlugin": {
        "Authors": [
            {
                "Email": "anditosan@kde.org",
                "Name": "Andy Betts",
                "Name[ar]": "أندي بتتس",
                "Name[bg]": "Andy Betts",
                "Name[ca@valencia]": "Andy Betts",
                "Name[ca]": "Andy Betts",
                "Name[cs]": "Andy Betts",
                "Name[de]": "Andy Betts",
                "Name[en_GB]": "Andy Betts",
                "Name[es]": "Andy Betts",
                "Name[eu]": "Andy Betts",
                "Name[fr]": "Andy Betts",
                "Name[it]": "Andy Betts",
                "Name[ka]": "ენდი ბეთსი",
                "Name[nl]": "Andy Betts",
                "Name[nn]": "Andy Betts",
                "Name[pl]": "Andy Betts",
                "Name[pt]": "Andy Betts",
                "Name[pt_BR]": "Andy Betts",
                "Name[ru]": "Andy Betts",
                "Name[sl]": "Andy Betts",
                "Name[tr]": "Andy Betts",
                "Name[uk]": "Andy Betts",
                "Name[x-test]": "xxAndy Bettsxx",
                "Name[zh_CN]": "Andy Betts"
            }
        ],
        "Id": "Next",
        "License": "CC-BY-SA-4.0",
        "Name": "Mountain",
        "Name[ar]": "الجبل",
        "Name[bg]": "Планина",
        "Name[ca@valencia]": "Muntanya",
        "Name[ca]": "Muntanya",
        "Name[cs]": "Hora",
        "Name[de]": "Berg",
        "Name[en_GB]": "Mountain",
        "Name[es]": "Montaña",
        "Name[eu]": "Mendia",
        "Name[fr]": "Montagne",
        "Name[it]": "Montagna",
        "Name[ka]": "მთა",
        "Name[nl]": "Berg",
        "Name[nn]": "Fjell",
        "Name[pl]": "Góra",
        "Name[pt]": "Montanha",
        "Name[pt_BR]": "Montanha",
        "Name[ru]": "Гора",
        "Name[sl]": "Gora",
        "Name[tr]": "Dağ",
        "Name[uk]": "Гора",
        "Name[x-test]": "xxMountainxx",
        "Name[zh_CN]": "Mountain 山峰"
    },
    "X-KDE-PlasmaImageWallpaper-AccentColor": {
        "Dark": "#018786",
        "Light": "#3d818d"
    }
}
